…
df_clean <- step3 %>%
  # 8. Sample balanced training data
  group_by(party_id) %>%
  sample_n(size = 2534) %>%
  ungroup() %>% 
  # 9. Randomize order of statments
  arrange(sample(1:length(seq), length(seq)))

print(object.size(df_clean), standard = "SI", units = "MB")

## 8.8 MB

df_clean

## # A tibble: 12,670 x 4
##    party_id   seq text_word                    text_lemma                 
##    <chr>    <dbl> <chr>                        <chr>                      
##  1 5        1495. sich vergangenen acht Jahre… sich vergangen acht Jahr v…
##  2 3         733. Erneuerung Land Unser Regie… Erneuerung Land Unser Regi…
##  3 4        2122. stattfinden Eine Ideologie … stattfinden Eine Ideologie…
##  4 3        2247. Sicherheit gewährleistet Ei… Sicherheit gewährleisten E…
##  5 3        2647. Frische Luft gesunde Böden … frischen Luft gesunden Bod…
##  6 4        1624. können Hochschulen Studiere… können Hochschule Studiere…
##  7 2        2127. Menschen kleineren ökologis… Mensch klein ökologisch Fu…
##  8 1         310. BÜNDNIS DIE GRÜNEN befürwor… BÜNDNIS DIE GRÜNEN befürwo…
##  9 5        1384. Gesellschaftsmodell kann es… Gesellschaftsmodell können…
## 10 4         148. werden Völlig verfehlt hing… werden Völlig verfehlen hi…
## # ... with 12,660 more rows
…
