systats - personal blog
…
test_seq <- tokenizer %>% 
  texts_to_sequences(test$text) %>% 
  pad_sequences(maxlen = maxlen, value = 0)

tokenizer %>%
  .$index_word %>% 
  map_chr(1) %>% 
  tibble(
    char = ., 
    index = names(tokenizer$index_word)
  ) %>% 
  slice(1:50)

## # A tibble: 50 x 2
##    char  index
##    <chr> <chr>
##  1 " "   1    
##  2 e     2    
##  3 n     3    
##  4 i     4    
##  5 r     5    
##  6 s     6    
##  7 t     7    
##  8 a     8    
##  9 h     9    
## 10 d     10   
## # ... with 40 more rows
…
