…
pol_agendas <- step3 %>%
  # 8. Sample balanced training data
  group_by(party_id) %>%
  sample_n(size = 2534) %>%
  ungroup() %>% 
  # 9. Randomize order of statments
  arrange(sample(1:length(seq), length(seq)))

print(object.size(pol_agendas), standard = "SI", units = "MB")

## 9 MB

pol_agendas

## # A tibble: 12,670 x 4
##    party_id   seq text_word                    text_lemma                 
##    <chr>    <dbl> <chr>                        <chr>                      
##  1 2         1010 erfordert dauerhafte Aufsto… erfordern dauerhaft Aufsto…
##  2 1         4966 heute EC Karte In Alters vo… heute EC karten In Alter v…
##  3 2          918 Rüstung Militär auszugeben … Rüstung Militär ausgeben s…
##  4 4         3431 sich Illusion erwiesen Stro… sich Illusion erweisen Str…
##  5 1         3159 Schwarz Rot Schwarz Gelb ka… Schwarz Rot Schwarz Gelb k…
##  6 5         1834 wollen ältere pflegebedürft… wollen alt pflegebedürftig…
##  7 2         1914 Takt vorgibt Eine Gesellsch… Takt vorgeben Eine Gesells…
##  8 4          346 Organisationsstrukturen Fac… Organisationsstrukturen Fa…
##  9 1          552 lernen haben Auf dramatisch… lernen haben Auf dramatisc…
## 10 3          366 Krankenhausbehandlung häusl… Krankenhausbehandlung häus…
## # ... with 12,660 more rows
…
