…
print(object.size(df_clean), standard = "SI", units = "MB")
```

    ## 10.8 MB

``` r
df_clean
```

    ## # A tibble: 20,000 x 6
    ##    party_id   seq text                    nwords    id ctext              
    ##       <dbl> <dbl> <chr>                    <int> <int> <chr>              
    ##  1       5. 2894. wollen auch in zukunft…     29 17316 wollen zukunft bei…
    ##  2       1. 2074. und es ist zynisch die…     30  1567 zynisch form ausbe…
    ##  3       2. 3451. einkauf im internet um…     29  6077 einkauf internet z…
    ##  4       5.  781. deutschland weil ihre …     29 19208 deutschland regier…
    ##  5       4. 1216. die liberale einkommen…     29 14361 liberale einkommen…
    ##  6       3. 2444. brauchen einen neuen i…     29  9891 brauchen neuen imp…
    ##  7       1. 6385. auch europäisch zu rea…     29  2787 europäisch reagier…
    ##  8       2. 2638. per volksentscheid vor…     29  5742 volksentscheid vor…
    ##  9       5.  379. und vertrauen zu siche…     29 17309 vertrauen sichern …
    ## 10       4.   10. wichtigsten zukunftsre…     29 15715 wichtigsten zukunf…
    ## # ... with 19,990 more rows
…
