…
print(object.size(df_clean), standard = "SI", units = "MB")

## 10.8 MB

df_clean

## # A tibble: 20,000 x 6
##    party_id   seq text                     nwords    id ctext             
##       <dbl> <dbl> <chr>                     <int> <int> <chr>             
##  1       1. 1263. die wiederaufbereitung …     29  1620 wiederaufbereitun…
##  2       1. 7478. die regionalen wirtscha…     29  2697 regionalen wirtsc…
##  3       2. 1990. dem internet hat sich v…     29  6789 internet veränder…
##  4       4. 3183. soll das gesamtvolumen …     29 12265 gesamtvolumen fin…
##  5       1. 1122. zeigen sich in einzelne…     29  3865 zeigen einzelnen …
##  6       1. 7364. abzug der letzten atomw…     29  1752 abzug letzten ato…
##  7       4. 3432. dafür stark gemacht das…     29 12978 dafür stark gemac…
##  8       4. 2653. für die vergabe von stu…     29 12746 vergabe studienpl…
##  9       3.  303. allen schulen werden pu…     29  8012 schulen punc_dot …
## 10       3. 1177. und für die innere sich…     29  8213 innere sicherheit…
## # ... with 19,990 more rows
…
