…
df_clean <- step3 %>%
  # 8. Sample balanced training data
  group_by(party_id) %>%
  sample_n(size = 2534) %>%
  ungroup() %>% 
  # 9. Randomize order of statments
  arrange(sample(1:length(seq), length(seq)))

print(object.size(df_clean), standard = "SI", units = "MB")

## 8.8 MB

df_clean

## # A tibble: 12,670 x 4
##    party_id   seq text_word                    text_lemma                 
##    <chr>    <dbl> <chr>                        <chr>                      
##  1 4        3014. verwendet Wir wissen Konzep… verwenden Wir wissen Konze…
##  2 4        1585. Die FDP tritt Abschaffung U… Die FDP tritt Abschaffung …
##  3 3         959. gesellschaftlichen Leben te… gesellschaftlich Leben tei…
##  4 1        1497. beigetragen Wir stehen hist… beitragen Wir stehen histo…
##  5 2         539. gesellschaftliche Debatte A… gesellschaftliche Debatte …
##  6 3        1173. Gesellschaft durchzusetzen … Gesellschaft durchsetzen G…
##  7 2        1209. setzt sich dafür Spielautom… setzen sich dafür Spielaut…
##  8 3        1485. Kosten Anpassungsmaßnahmen … Kosten Anpassungsmaßnahmen…
##  9 3        1188. Wir brauchen Regeln Gesundh… Wir brauchen Regel Gesundh…
## 10 4        2371. dürfen nicht pauschal Verda… dürfen nicht pauschal Verd…
## # ... with 12,660 more rows
…
